{
    "timeStamp": 1646150171448,
    "trendingQueries": [
      {
        "date": 1646149504009,
        "success": true,
        "query": "Russia",
        "count": 159,
        "type": "person"
      },
      {
        "date": 1646121715424,
        "success": true,
        "query": "UKRAINE",
        "count": 146,
        "type": "organization"
      },
      {
        "date": 1646149072784,
        "success": true,
        "query": "rapid action battalion",
        "count": 112,
        "type": "unconstrained"
      },
      {
        "date": 1646148911797,
        "success": true,
        "query": "IRAQ",
        "count": 41,
        "type": "person"
      },
      {
        "date": 1646144251755,
        "success": true,
        "query": "Vladimir Putin",
        "count": 26,
        "type": "person"
      },
      {
        "date": 1646147163388,
        "success": true,
        "query": "covid",
        "count": 16,
        "type": "unconstrained"
      },
      {
        "date": 1646124337335,
        "success": true,
        "query": "Sudan",
        "count": 13,
        "type": "organization"
      },
      {
        "date": 1645984589441,
        "success": true,
        "query": "Albin Kurti",
        "count": 10,
        "type": "unconstrained"
      },
      {
        "date": 1646142158410,
        "success": true,
        "query": "jokowi",
        "count": 10,
        "type": "unconstrained"
      },
      {
        "date": 1646147060474,
        "success": true,
        "query": "Ukrainian agents infiltrating Crimea",
        "count": 9,
        "type": "unconstrained"
      }
    ]
  }